http://138.91.32.44/jw/web/json/plugin/org.joget.custom.webservices.UserProjectAssignAPI/service


{
	"projectId": "demoid",
	"users": [

		{
			"action": "create",
			"userName": "jz",
			"userRole": "QAQC Engineer"
		},
		{
			"action": "delete",
			"userName": "jz",
			"userRole": "Contractor PM"
		},
		{
			"action": "create",
			"userName": "jzsh",
			"userRole": "Contractor PM"
		},
		{
			"action": "delete",
			"userName": "jzsh",
			"userRole": "QAQC Engineer"
		}
	]
}